<?xml version="1.0" encoding="utf-8"?>
<!DOCTYPE eagle SYSTEM "eagle.dtd">
<eagle version="6.6.0">
<drawing>
<settings>
<setting alwaysvectorfont="no"/>
<setting verticaltext="up"/>
</settings>
<grid distance="0.05" unitdist="inch" unit="inch" style="lines" multiple="1" display="yes" altdistance="0.025" altunitdist="inch" altunit="inch"/>
<layers>
<layer number="1" name="Top" color="4" fill="1" visible="yes" active="yes"/>
<layer number="2" name="Route2" color="1" fill="3" visible="no" active="yes"/>
<layer number="3" name="Route3" color="4" fill="3" visible="no" active="yes"/>
<layer number="14" name="Route14" color="1" fill="6" visible="no" active="yes"/>
<layer number="15" name="Route15" color="4" fill="6" visible="no" active="yes"/>
<layer number="16" name="Bottom" color="1" fill="1" visible="yes" active="yes"/>
<layer number="17" name="Pads" color="2" fill="1" visible="yes" active="yes"/>
<layer number="18" name="Vias" color="2" fill="1" visible="yes" active="yes"/>
<layer number="19" name="Unrouted" color="6" fill="1" visible="yes" active="yes"/>
<layer number="20" name="Dimension" color="15" fill="1" visible="yes" active="yes"/>
<layer number="21" name="tPlace" color="7" fill="1" visible="yes" active="yes"/>
<layer number="22" name="bPlace" color="7" fill="1" visible="yes" active="yes"/>
<layer number="23" name="tOrigins" color="15" fill="1" visible="yes" active="yes"/>
<layer number="24" name="bOrigins" color="15" fill="1" visible="yes" active="yes"/>
<layer number="25" name="tNames" color="7" fill="1" visible="yes" active="yes"/>
<layer number="26" name="bNames" color="7" fill="1" visible="yes" active="yes"/>
<layer number="27" name="tValues" color="7" fill="1" visible="yes" active="yes"/>
<layer number="28" name="bValues" color="7" fill="1" visible="yes" active="yes"/>
<layer number="29" name="tStop" color="7" fill="3" visible="no" active="yes"/>
<layer number="30" name="bStop" color="7" fill="6" visible="no" active="yes"/>
<layer number="31" name="tCream" color="7" fill="4" visible="no" active="yes"/>
<layer number="32" name="bCream" color="7" fill="5" visible="no" active="yes"/>
<layer number="33" name="tFinish" color="6" fill="3" visible="no" active="yes"/>
<layer number="34" name="bFinish" color="6" fill="6" visible="no" active="yes"/>
<layer number="35" name="tGlue" color="7" fill="4" visible="no" active="yes"/>
<layer number="36" name="bGlue" color="7" fill="5" visible="no" active="yes"/>
<layer number="37" name="tTest" color="7" fill="1" visible="no" active="yes"/>
<layer number="38" name="bTest" color="7" fill="1" visible="no" active="yes"/>
<layer number="39" name="tKeepout" color="4" fill="11" visible="yes" active="yes"/>
<layer number="40" name="bKeepout" color="1" fill="11" visible="yes" active="yes"/>
<layer number="41" name="tRestrict" color="4" fill="10" visible="yes" active="yes"/>
<layer number="42" name="bRestrict" color="1" fill="10" visible="yes" active="yes"/>
<layer number="43" name="vRestrict" color="2" fill="10" visible="yes" active="yes"/>
<layer number="44" name="Drills" color="7" fill="1" visible="no" active="yes"/>
<layer number="45" name="Holes" color="7" fill="1" visible="yes" active="yes"/>
<layer number="46" name="Milling" color="3" fill="1" visible="no" active="yes"/>
<layer number="47" name="Measures" color="7" fill="1" visible="no" active="yes"/>
<layer number="48" name="Document" color="7" fill="1" visible="yes" active="yes"/>
<layer number="49" name="Reference" color="7" fill="1" visible="yes" active="yes"/>
<layer number="51" name="tDocu" color="7" fill="1" visible="yes" active="yes"/>
<layer number="52" name="bDocu" color="7" fill="1" visible="yes" active="yes"/>
<layer number="91" name="Nets" color="2" fill="1" visible="yes" active="yes"/>
<layer number="92" name="Busses" color="1" fill="1" visible="yes" active="yes"/>
<layer number="93" name="Pins" color="2" fill="1" visible="yes" active="yes"/>
<layer number="94" name="Symbols" color="4" fill="1" visible="yes" active="yes"/>
<layer number="95" name="Names" color="7" fill="1" visible="yes" active="yes"/>
<layer number="96" name="Values" color="7" fill="1" visible="yes" active="yes"/>
<layer number="97" name="Info" color="7" fill="1" visible="yes" active="yes"/>
<layer number="98" name="Guide" color="6" fill="1" visible="yes" active="yes"/>
</layers>
<library>
<packages>
<package name="DHT">
<wire x1="-7.55" y1="20" x2="-0.635" y2="20" width="0.127" layer="21"/>
<wire x1="-0.635" y1="20" x2="0.635" y2="20" width="0.127" layer="21"/>
<wire x1="0.635" y1="20" x2="7.55" y2="20" width="0.127" layer="21"/>
<wire x1="7.55" y1="20" x2="7.55" y2="15.875" width="0.127" layer="21"/>
<wire x1="7.55" y1="15.875" x2="7.55" y2="14.605" width="0.127" layer="21"/>
<wire x1="7.55" y1="14.605" x2="7.55" y2="0" width="0.127" layer="21"/>
<wire x1="7.55" y1="0" x2="5.08" y2="0" width="0.127" layer="21"/>
<wire x1="5.08" y1="0" x2="-5.08" y2="0" width="0.127" layer="21"/>
<wire x1="-5.08" y1="0" x2="-7.55" y2="0" width="0.127" layer="21"/>
<wire x1="-7.55" y1="0" x2="-7.55" y2="14.605" width="0.127" layer="21"/>
<pad name="1" x="-3.81" y="-2.54" drill="0.8" shape="square"/>
<pad name="2" x="-1.27" y="-2.54" drill="0.8"/>
<pad name="3" x="1.27" y="-2.54" drill="0.8"/>
<pad name="4" x="3.81" y="-2.54" drill="0.8"/>
<text x="-8.255" y="0" size="1.27" layer="25" ratio="18" rot="R90">&gt;NAME</text>
<text x="9.525" y="0" size="1.27" layer="27" rot="R90">&gt;VALUE</text>
<hole x="0" y="22.225" drill="3.2"/>
<wire x1="-7.55" y1="14.605" x2="-7.55" y2="15.875" width="0.127" layer="21"/>
<wire x1="-7.55" y1="15.875" x2="-7.55" y2="20" width="0.127" layer="21"/>
<wire x1="-7.55" y1="20" x2="-4.55" y2="25.1" width="0.127" layer="21"/>
<wire x1="-4.55" y1="25.1" x2="4.55" y2="25.1" width="0.127" layer="21"/>
<wire x1="4.55" y1="25.1" x2="7.55" y2="20" width="0.127" layer="21"/>
<wire x1="-0.635" y1="15.875" x2="0.635" y2="15.875" width="0.127" layer="51"/>
<wire x1="0.635" y1="15.875" x2="0.635" y2="14.605" width="0.127" layer="51"/>
<wire x1="0.635" y1="14.605" x2="-0.635" y2="14.605" width="0.127" layer="51"/>
<wire x1="-0.635" y1="14.605" x2="-0.635" y2="15.875" width="0.127" layer="51"/>
<wire x1="-0.635" y1="13.335" x2="0.635" y2="13.335" width="0.127" layer="51"/>
<wire x1="0.635" y1="13.335" x2="0.635" y2="12.065" width="0.127" layer="51"/>
<wire x1="0.635" y1="12.065" x2="-0.635" y2="12.065" width="0.127" layer="51"/>
<wire x1="-0.635" y1="12.065" x2="-0.635" y2="13.335" width="0.127" layer="51"/>
<wire x1="-0.635" y1="10.795" x2="0.635" y2="10.795" width="0.127" layer="51"/>
<wire x1="0.635" y1="10.795" x2="0.635" y2="9.525" width="0.127" layer="51"/>
<wire x1="0.635" y1="9.525" x2="-0.635" y2="9.525" width="0.127" layer="51"/>
<wire x1="-0.635" y1="9.525" x2="-0.635" y2="10.795" width="0.127" layer="51"/>
<wire x1="-0.635" y1="8.255" x2="0.635" y2="8.255" width="0.127" layer="51"/>
<wire x1="0.635" y1="8.255" x2="0.635" y2="6.985" width="0.127" layer="51"/>
<wire x1="0.635" y1="6.985" x2="-0.635" y2="6.985" width="0.127" layer="51"/>
<wire x1="-0.635" y1="6.985" x2="-0.635" y2="8.255" width="0.127" layer="51"/>
<wire x1="-0.635" y1="5.715" x2="0.635" y2="5.715" width="0.127" layer="51"/>
<wire x1="0.635" y1="5.715" x2="0.635" y2="4.445" width="0.127" layer="51"/>
<wire x1="0.635" y1="4.445" x2="-0.635" y2="4.445" width="0.127" layer="51"/>
<wire x1="-0.635" y1="4.445" x2="-0.635" y2="5.715" width="0.127" layer="51"/>
<wire x1="-3.175" y1="15.875" x2="-1.905" y2="15.875" width="0.127" layer="51"/>
<wire x1="-1.905" y1="15.875" x2="-1.905" y2="14.605" width="0.127" layer="51"/>
<wire x1="-1.905" y1="14.605" x2="-3.175" y2="14.605" width="0.127" layer="51"/>
<wire x1="-3.175" y1="14.605" x2="-3.175" y2="15.875" width="0.127" layer="51"/>
<wire x1="-3.175" y1="13.335" x2="-1.905" y2="13.335" width="0.127" layer="51"/>
<wire x1="-1.905" y1="13.335" x2="-1.905" y2="12.065" width="0.127" layer="51"/>
<wire x1="-1.905" y1="12.065" x2="-3.175" y2="12.065" width="0.127" layer="51"/>
<wire x1="-3.175" y1="12.065" x2="-3.175" y2="13.335" width="0.127" layer="51"/>
<wire x1="-3.175" y1="10.795" x2="-1.905" y2="10.795" width="0.127" layer="51"/>
<wire x1="-1.905" y1="10.795" x2="-1.905" y2="9.525" width="0.127" layer="51"/>
<wire x1="-1.905" y1="9.525" x2="-3.175" y2="9.525" width="0.127" layer="51"/>
<wire x1="-3.175" y1="9.525" x2="-3.175" y2="10.795" width="0.127" layer="51"/>
<wire x1="-3.175" y1="8.255" x2="-1.905" y2="8.255" width="0.127" layer="51"/>
<wire x1="-1.905" y1="8.255" x2="-1.905" y2="6.985" width="0.127" layer="51"/>
<wire x1="-1.905" y1="6.985" x2="-3.175" y2="6.985" width="0.127" layer="51"/>
<wire x1="-3.175" y1="6.985" x2="-3.175" y2="8.255" width="0.127" layer="51"/>
<wire x1="-3.175" y1="5.715" x2="-1.905" y2="5.715" width="0.127" layer="51"/>
<wire x1="-1.905" y1="5.715" x2="-1.905" y2="4.445" width="0.127" layer="51"/>
<wire x1="-1.905" y1="4.445" x2="-3.175" y2="4.445" width="0.127" layer="51"/>
<wire x1="-3.175" y1="4.445" x2="-3.175" y2="5.715" width="0.127" layer="51"/>
<wire x1="1.905" y1="15.875" x2="3.175" y2="15.875" width="0.127" layer="51"/>
<wire x1="3.175" y1="15.875" x2="3.175" y2="14.605" width="0.127" layer="51"/>
<wire x1="3.175" y1="14.605" x2="1.905" y2="14.605" width="0.127" layer="51"/>
<wire x1="1.905" y1="14.605" x2="1.905" y2="15.875" width="0.127" layer="51"/>
<wire x1="1.905" y1="13.335" x2="3.175" y2="13.335" width="0.127" layer="51"/>
<wire x1="3.175" y1="13.335" x2="3.175" y2="12.065" width="0.127" layer="51"/>
<wire x1="3.175" y1="12.065" x2="1.905" y2="12.065" width="0.127" layer="51"/>
<wire x1="1.905" y1="12.065" x2="1.905" y2="13.335" width="0.127" layer="51"/>
<wire x1="1.905" y1="10.795" x2="3.175" y2="10.795" width="0.127" layer="51"/>
<wire x1="3.175" y1="10.795" x2="3.175" y2="9.525" width="0.127" layer="51"/>
<wire x1="3.175" y1="9.525" x2="1.905" y2="9.525" width="0.127" layer="51"/>
<wire x1="1.905" y1="9.525" x2="1.905" y2="10.795" width="0.127" layer="51"/>
<wire x1="1.905" y1="8.255" x2="3.175" y2="8.255" width="0.127" layer="51"/>
<wire x1="3.175" y1="8.255" x2="3.175" y2="6.985" width="0.127" layer="51"/>
<wire x1="3.175" y1="6.985" x2="1.905" y2="6.985" width="0.127" layer="51"/>
<wire x1="1.905" y1="6.985" x2="1.905" y2="8.255" width="0.127" layer="51"/>
<wire x1="1.905" y1="5.715" x2="3.175" y2="5.715" width="0.127" layer="51"/>
<wire x1="3.175" y1="5.715" x2="3.175" y2="4.445" width="0.127" layer="51"/>
<wire x1="3.175" y1="4.445" x2="1.905" y2="4.445" width="0.127" layer="51"/>
<wire x1="1.905" y1="4.445" x2="1.905" y2="5.715" width="0.127" layer="51"/>
<wire x1="0.635" y1="20" x2="0.635" y2="17.145" width="0.127" layer="51"/>
<wire x1="0.635" y1="17.145" x2="-0.635" y2="17.145" width="0.127" layer="51"/>
<wire x1="-0.635" y1="17.145" x2="-0.635" y2="20" width="0.127" layer="51"/>
<wire x1="-1.905" y1="20" x2="-1.905" y2="17.145" width="0.127" layer="51"/>
<wire x1="-1.905" y1="17.145" x2="-3.175" y2="17.145" width="0.127" layer="51"/>
<wire x1="-3.175" y1="17.145" x2="-3.175" y2="20" width="0.127" layer="51"/>
<wire x1="3.175" y1="20" x2="3.175" y2="17.145" width="0.127" layer="51"/>
<wire x1="3.175" y1="17.145" x2="1.905" y2="17.145" width="0.127" layer="51"/>
<wire x1="1.905" y1="17.145" x2="1.905" y2="20" width="0.127" layer="51"/>
<wire x1="4.445" y1="15.875" x2="7.55" y2="15.875" width="0.127" layer="51"/>
<wire x1="7.55" y1="14.605" x2="4.445" y2="14.605" width="0.127" layer="51"/>
<wire x1="4.445" y1="14.605" x2="4.445" y2="15.875" width="0.127" layer="51"/>
<wire x1="4.445" y1="13.335" x2="7.55" y2="13.335" width="0.127" layer="51"/>
<wire x1="7.55" y1="12.065" x2="4.445" y2="12.065" width="0.127" layer="51"/>
<wire x1="4.445" y1="12.065" x2="4.445" y2="13.335" width="0.127" layer="51"/>
<wire x1="4.445" y1="10.795" x2="7.55" y2="10.795" width="0.127" layer="51"/>
<wire x1="7.55" y1="9.525" x2="4.445" y2="9.525" width="0.127" layer="51"/>
<wire x1="4.445" y1="9.525" x2="4.445" y2="10.795" width="0.127" layer="51"/>
<wire x1="4.445" y1="8.255" x2="7.55" y2="8.255" width="0.127" layer="51"/>
<wire x1="7.55" y1="6.985" x2="4.445" y2="6.985" width="0.127" layer="51"/>
<wire x1="4.445" y1="6.985" x2="4.445" y2="8.255" width="0.127" layer="51"/>
<wire x1="4.445" y1="5.715" x2="7.55" y2="5.715" width="0.127" layer="51"/>
<wire x1="7.55" y1="4.445" x2="4.445" y2="4.445" width="0.127" layer="51"/>
<wire x1="4.445" y1="4.445" x2="4.445" y2="5.715" width="0.127" layer="51"/>
<wire x1="-7.55" y1="15.875" x2="-4.445" y2="15.875" width="0.127" layer="51"/>
<wire x1="-4.445" y1="15.875" x2="-4.445" y2="14.605" width="0.127" layer="51"/>
<wire x1="-4.445" y1="14.605" x2="-7.55" y2="14.605" width="0.127" layer="51"/>
<wire x1="-7.55" y1="13.335" x2="-4.445" y2="13.335" width="0.127" layer="51"/>
<wire x1="-4.445" y1="13.335" x2="-4.445" y2="12.065" width="0.127" layer="51"/>
<wire x1="-4.445" y1="12.065" x2="-7.55" y2="12.065" width="0.127" layer="51"/>
<wire x1="-7.55" y1="10.795" x2="-4.445" y2="10.795" width="0.127" layer="51"/>
<wire x1="-4.445" y1="10.795" x2="-4.445" y2="9.525" width="0.127" layer="51"/>
<wire x1="-4.445" y1="9.525" x2="-7.55" y2="9.525" width="0.127" layer="51"/>
<wire x1="-7.55" y1="8.255" x2="-4.445" y2="8.255" width="0.127" layer="51"/>
<wire x1="-4.445" y1="8.255" x2="-4.445" y2="6.985" width="0.127" layer="51"/>
<wire x1="-4.445" y1="6.985" x2="-7.55" y2="6.985" width="0.127" layer="51"/>
<wire x1="-7.55" y1="5.715" x2="-4.445" y2="5.715" width="0.127" layer="51"/>
<wire x1="-4.445" y1="5.715" x2="-4.445" y2="4.445" width="0.127" layer="51"/>
<wire x1="-4.445" y1="4.445" x2="-7.55" y2="4.445" width="0.127" layer="51"/>
<wire x1="-5.08" y1="0" x2="-5.08" y2="-3.81" width="0.127" layer="21"/>
<wire x1="-5.08" y1="-3.81" x2="5.08" y2="-3.81" width="0.127" layer="21"/>
<wire x1="5.08" y1="-3.81" x2="5.08" y2="0" width="0.127" layer="21"/>
</package>
</packages>
<symbols>
<symbol name="TH">
<pin name="VCC" x="-10.16" y="2.54" length="middle" direction="pwr"/>
<pin name="DATA" x="-10.16" y="0" length="middle"/>
<pin name="GND" x="-10.16" y="-2.54" length="middle" direction="pwr"/>
<wire x1="-5.08" y1="7.62" x2="5.08" y2="7.62" width="0.254" layer="94"/>
<wire x1="5.08" y1="7.62" x2="5.08" y2="-7.62" width="0.254" layer="94"/>
<wire x1="5.08" y1="-7.62" x2="-5.08" y2="-7.62" width="0.254" layer="94"/>
<wire x1="-5.08" y1="-7.62" x2="-5.08" y2="7.62" width="0.254" layer="94"/>
<text x="-4.572" y="8.128" size="1.27" layer="95">&gt;NAME</text>
<text x="-5.08" y="-10.16" size="1.27" layer="96">&gt;VALUE</text>
</symbol>
</symbols>
<devicesets>
<deviceset name="DHT22" prefix="IC" uservalue="yes">
<description>&lt;p&gt;
Digital-output relative humidity &amp; temperature sensor/module
&lt;b&gt;DHT22&lt;/b&gt; (DHT22 also named as &lt;b&gt;AM2302&lt;/b&gt;)&lt;/p&gt;

&lt;ul&gt;
&lt;li&gt;Power supply: 3.3-6V DC&lt;/li&gt;
&lt;li&gt;Sensing element: Polymer capacitor&lt;/li&gt;
&lt;li&gt;Range: -40~80C; 0-100%RH;&lt;/li&gt;
&lt;li&gt;Accuracy: +-0.5C; +-2%RH(Max +-5%RH)&lt;/li&gt;
&lt;/ul&gt;</description>
<gates>
<gate name="G$1" symbol="TH" x="0" y="0"/>
</gates>
<devices>
<device name="" package="DHT">
<connects>
<connect gate="G$1" pin="DATA" pad="2"/>
<connect gate="G$1" pin="GND" pad="4"/>
<connect gate="G$1" pin="VCC" pad="1"/>
</connects>
<technologies>
<technology name=""/>
</technologies>
</device>
</devices>
</deviceset>
</devicesets>
</library>
</drawing>
</eagle>
